set multiplot layout 4,2
plot "ALB.m4.fftcent" matrix with image
plot "KVN.m4.fftcent" matrix with image
plot "MSS.m4.fftcent" matrix with image
plot "VS.m4.fftcent" matrix with image
plot "Sudha.m4.fftcent" matrix with image
plot "NN.m4.fftcent" matrix with image
plot "TMK.m4.fftcent" matrix with image
plot "SS.m4.fftcent" matrix with image
unset multiplot