7064
7274
7643
8062
7886
7355
6874
6594
6274
6014
5894
5567
5156
4395
3759
3079
2141
1373
808
366
-77
-391
-510
-676
-904
-1176
-1568
-1835
-2205
-2154
-2035
-2185
-2402
-2653
-2644
-2734
-3045
-3224
-3461
-3913
-4202
-4208
-4539
-4962
-5496
-5789
-5924
-6000
-6043
-6136
-6154
-6221
-5769
-4643
-3155
-2077
-1737
-1273
-882
-287
492
1403
2146
2585
3073
3948
5144
6041
6512
6828
7153
7382
7485
7015
6466
6116
6007
5591
5374
5217
4927
4206
3160
2372
1441
639
-6
-467
-940
-1430
-1618
-1757
-1897
-2146
-2496
-2883
-3008
-3034
-3000
-3034
-3337
-3547
-3573
-3599
-3730
-3921
-4037
-4410
-4499
-4629
-4772
-5068
-5647
-5919
-5783
-5653
-5623
-5299
-5419
-5499
-5393
-4926
-3523
-2260
-1476
-891
-460
-35
502
1185
1772
2476
2944
3572
4654
5804
6778
7185
7252
7578
7773
7519
7200
6701
6374
6147
5809
5542
5059
4352
3429
2534
1717
1126
459
-214
-707
-929
-945
-1171
-1263
-1465
-1590
-1847
-2054
-2174
-2251
-2330
-2425
-2682
-2906
-2956
-2978
-3057
-3338
-3611
-3975
-4117
-4468
-4690
-4951
-5128
-5049
-4926
-4783
-4794
-4690
-4864
-4993
-4803
-4217
-2882
-1665
-819
-552
-176
166
562
1246
1838
2602
3220
4114
5107
6202
6959
7100
7118
7366
7472
7322
6812
6333
6156
5749
5320
5025
4675
3883
3085
2160
1466
765
256
-92
-430
-520
-688
-806
-948
-1032
-1276
-1634
-1887
-1965
-2106
-2315
-2442
-2675
-2653
-2795
-3010
-3130
-3523
-3888
-4115
-4387
-4529
-4607
-4761
-4955
-5032
-4807
-4682
-4765
-4875
-4908
-4908
-4691
-3924
-2690
-1607
-1150
-898
-448
-160
401
1067
2132
3148
3831
4480
5538
6807
7481
7700
7950
8038
8382
8197
7894
7510
7030
6696
6249
5863
5531
4782
3881
3079
2456
1843
1096
737
467
473
416
243
21
-247
-593
-942
-1267
-1461
-1442
-1646
-1797
-2094
-2369
-2706
-3027
-3272
-3716
-4143
-4400
-4590
-4799
-5023
-5256
-5462
-5551
-5499
-5380
-5368
-5437
-5463
-5556
-5187
-4461
-3169
-2182
-1591
-1046
-549
-24
581
1646
2695
3553
4124
4710
5968
7259
7753
7841
7961
7974
7874
7625
7092
6623
6075
5664
5422
5044
4200
3350
2280
1576
1104
525
193
-325
-463
-306
-536
-869
-1076
-1385
-1612
-2079
-2120
-2127
-2430
-2430
-2750
-3192
-3662
-3934
-4399
-4684
-5114
-5548
-5759
-6023
-6018
-6210
-6385
-6595
-6461
-6380
-6410
-6180
-6130
-6417
-6184
-5329
-3866
-2186
-1201
-615
224
766
1332
2247
3087
3869
4411
4728
5386
6242
6762
6567
6472
6197
5690
5621
5169
4806
4465
4175
4096
4140
3993
3369
2930
2491
2306
2318
2378
2512
2484
2391
2306
1899
1470
876
151
-576
-1221
-1721
-2168
-2442
-2963
-3787
-4564
-5007
-5465
-6011
-6440
-6626
-6472
-6319
-6275
-5987
-5730
-5775
-5633
-5657
-5476
-5429
-5561
-5729
-5597
-4711
-2190
1228
3244
3459
3615
4109
4270
4588
5907
7610
8275
8091
7858
7487
6576
4809
3531
2914
2466
2348
2665
3152
3039
2151
1235
894
771
582
829
1264
1900
2174
2697
2838
2082
870
-197
-731
-1193
-1762
-2415
-2887
-3353
-3929
-4567
-4779
-5315
-5757
-5761
-5107
-4402
-4269
-4022
-3689
-3328
-2960
-2852
-2305
-2079
-2166
-2196
-2231
-2676
-3393
-3958
-4674
-5445
-5955
-5601
-2964
1363
3512
2489
1356
1844
2350
2394
4566
8059
9531
8506
7146
6232
4205
1800
968
1961
3041
3065
2966
2791
1724
-332
-1664
-1179
197
1167
2147
3152
3287
2388
1806
2193
2084
1162
1012
1670
1441
423
-991
-2114
-2746
-3255
-3257
-2871
-2835
-3544
-4339
-4107
-3933
-4308
-4252
-3334
-2523
-2353
-2334
-2235
-2427
-3213
-3613
-3341
-3620
-4199
-4762
-5358
-6269
-7154
-7276
-4759
126
3544
2226
-41
573
2133
3181
5806
10125
11548
9230
6826
5751
3931
2055
2369
4713
5436
4231
2626
1377
-23
-1563
-1470
631
2849
3377
2859
2532
1506
398
836
2777
3882
3067
1801
930
-383
-1854
-2504
-2192
-1990
-2236
-2575
-3169
-4228
-5499
-5948
-5040
-3711
-3330
-3351
-3244
-3247
-3494
-3412
-2749
-2339
-2323
-2312
-2609
-3432
-4497
-5178
-5462
-5869
-6283
-6089
-3755
1178
4530
2360
-1194
56
3853
6306
9026
12374
12546
8700
5300
5307
5481
4612
5270
7098
5855
1796
-977
-1354
-970
-367
673
2299
2724
1250
-155
158
865
1540
3247
5341
4898
2271
160
36
554
869
1235
938
-888
-2987
-3893
-3956
-4161
-4212
-3835
-3310
-3595
-4675
-5129
-4449
-3547
-2509
-1585
-1485
-2549
-3638
-3684
-3243
-3213
-3512
-3736
-4623
-6204
-7489
-7425
-4831
1040
5149
2367
-3431
-3125
2511
6612
9293
12259
11992
6758
2221
3371
5559
5371
5667
6541
4186
-1306
-4096
-2500
-42
1157
1447
1302
167
-1702
-1486
1234
3404
3502
3897
4555
2943
102
-45
2002
3349
2613
1485
-638
-3593
-4635
-3234
-2242
-3240
-4748
-5378
-5321
-5729
-5873
-4952
-3884
-3588
-3501
-3320
-3623
-4136
-3817
-2792
-2413
-3360
-4363
-5110
-5798
-6775
-7265
-7056
-4724
1010
4274
398
-5869
-3325
4690
9551
11030
12094
10034
4010
1956
6923
10113
8340
6882
6382
2548
-2365
-2170
1898
4146
2906
444
-1291
-2075
-1408
1544
4675
4425
1478
955
2676
3258
2325
2879
4345
3338
1249
138
-694
-1963
-2011
-714
-1331
-4244
-6560
-6169
-4741
-4066
-4520
-4907
-5270
-5050
-3971
-2716
-2222
-2810
-3024
-2758
-2894
-3487
-3278
-2995
-3877
-5701
-7054
-7321
-4980
1704
5315
1126
-6339
-4841
4433
10146
11278
11663
9600
3846
2604
8806
12800
9586
6645
5567
2101
-2294
-496
4116
4691
905
-2739
-4277
-3869
-1543
1919
3746
1552
-2124
-1823
2251
4254
3366
2763
2577
1360
235
848
1389
48
-1201
-1295
-2765
-5259
-5850
-4362
-3241
-4109
-6050
-6881
-6298
-4798
-3230
-2472
-3170
-4309
-4290
-2971
-1914
-1882
-2108
-2760
-4379
-5647
-6243
-5964
-3725
2364
5273
-281
-8095
-5006
6276
12083
10664
9604
6991
1973
3711
12362
14734
8276
4151
4136
2113
-55
3066
6310
3520
-2222
-4770
-4556
-2219
1211
3739
2703
-1384
-3673
-580
4936
6809
4083
1204
965
1797
2951
4645
3713
274
-2095
-2022
-1702
-2794
-3419
-3149
-3703
-5446
-6755
-6272
-5029
-4126
-3771
-4036
-4760
-4850
-3284
-1586
-1542
-2308
-2934
-3252
-4025
-4707
-5446
-6242
-4862
1359
5408
-691
-8756
-5990
5858
11439
9110
7674
6098
2058
4121
12778
15074
7627
3711
5268
3886
1347
3755
6311
2060
-3927
-5631
-4430
-2456
452
1913
-627
-4511
-4511
-245
4587
5291
1640
-1303
-305
2369
4409
4974
2582
-756
-2160
-751
-208
-1493
-3206
-4170
-4682
-5671
-6319
-6160
-5676
-5443
-5394
-5748
-5878
-5140
-3456
-2729
-3125
-3588
-3410
-2791
-3242
-4206
-5366
-6081
-4940
-145
5129
2244
-6538
-8096
2510
11051
9334
5739
5402
3103
3052
10125
15041
9492
2859
4480
5841
2782
3150
6641
3944
-2690
-5121
-3700
-2694
-979
1051
-461
-4826
-5736
-1498
3009
4360
1543
-1653
-1295
2040
4956
5593
3501
210
-1081
412
1696
691
-1561
-3218
-4086
-4690
-4879
-5067
-5460
-5952
-6326
-6456
-6134
-5285
-4401
-4126
-4429
-4057
-3336
-2470
-2318
-3466
-4320
-4914
-4427
-1109
4772
4682
-3595
-8276
-449
10235
10538
5893
4728
4032
3549
9115
14717
11625
4402
4578
7268
5331
4446
7032
5165
-1426
-4225
-2844
-1750
-964
311
-1633
-5749
-6132
-1845
1636
2209
67
-2336
-1981
1149
4222
4949
3020
494
-11
1564
2897
2182
-40
-2362
-3282
-3284
-3137
-3743
-5124
-6067
-6552
-6538
-6230
-5768
-5438
-5687
-5891
-5027
-3664
-2733
-2930
-3822
-4668
-4663
-4228
-2967
737
4469
1384
-5795
-5994
4299
11203
7796
3964
4329
4214
5999
11933
14135
7778
3297
6740
7994
5501
5278
6329
2230
-2619
-2509
-1260
-1915
-1501
-1108
-4128
-6972
-5191
-835
607
-443
-2656
-3268
-1472
2080
4218
3354
866
106
1803
3962
3749
1648
-464
-1577
-1704
-1578
-1860
-3635
-4971
-5786
-5961
-6084
-6299
-6310
-6671
-6886
-6114
-4987
-4453
-4338
-4775
-5217
-5044
-4439
-3237
-2136
1036
3225
235
-4419
-2075
6572
9897
6512
4792
6284
7099
9499
12969
12101
6648
5823
9072
8816
6110
5905
5510
1739
-906
-658
-855
-2251
-1728
-2085
-4551
-6509
-4551
-1721
-1294
-2294
-3536
-3507
-1714
1489
2790
1802
283
836
3077
4485
3834
2118
868
553
606
503
-874
-2799
-4102
-4673
-4872
-5616
-6063
-6495
-6987
-7129
-6620
-6189
-6088
-6303
-6329
-6214
-5682
-4979
-4652
-4446
-1601
1565
199
-3884
-2533
4799
7946
5730
5183
6975
7544
8809
11516
11222
7486
7280
10118
9110
6067
5792
6003
3498
1472
935
-574
-2470
-1761
-1736
-4800
-6908
-5333
-3244
-3251
-3853
-4524
-4804
-3156
-352
666
-372
-616
1289
3206
3763
3425
2685
2170
2128
2335
1743
324
-587
-1257
-1968
-2884
-3753
-4188
-4834
-5838
-6256
-6057
-6124
-6208
-6276
-6732
-6926
-6369
-5674
-5499
-5674
-3614
-104
-119
-3121
-2922
2637
6157
5398
5812
7677
7775
8460
11280
11986
9673
9153
11267
10525
7688
7658
8465
6409
4406
2964
755
-1366
-468
-371
-3705
-6334
-5714
-4451
-4749
-4701
-5420
-6597
-5871
-3415
-2405
-2889
-2374
-924
-44
552
1062
1192
1325
1902
1968
1247
829
847
525
-441
-1259
-1980
-2595
-3424
-4236
-4895
-5566
-5863
-5925
-6438
-7051
-7297
-7072
-7216
-7549
-7056
-4432
-2196
-3454
-5956
-4253
655
2961
3102
4370
5142
4959
7075
10187
10395
8626
9772
11041
9601
8547
9724
9520
7515
6198
4994
2495
1495
2825
1230
-2406
-4388
-4245
-4099
-4229
-4385
-6190
-7930
-6814
-4949
-4797
-5265
-5091
-4803
-4385
-3004
-1941
-1794
-1731
-1252
-725
-512
-17
470
245
18
-214
-611
-885
-1011
-1265
-2251
-2837
-3085
-3795
-4503
-4916
-5186
-5658
-5927
-4347
-2447
-3534
-6456
-5923
-1743
533
546
1900
2717
2384
4223
7897
8864
7650
8804
10790
9715
9061
10642
10906
9366
8668
7842
5738
5053
6034
4907
1813
69
-123
-832
-1196
-1560
-3432
-5132
-4714
-3961
-4343
-4428
-4224
-4401
-4666
-4050
-3424
-3034
-2475
-2161
-2199
-2297
-1463
-764
-329
-440
-655
-674
-579
-231
-257
-607
-847
-1037
-1291
-1761
-2137
-2331
-2486
-2808
-1755
-808
-1932
-4038
-3639
-1182
-13
44
1024
1482
704
1689
4301
5572
5162
5977
7162
6535
6329
7600
8032
7089
6817
6406
4779
4067
4905
4374
2356
1266
966
150
-355
-141
-889
-2459
-2627
-2288
-2775
-3097
-2801
-3074
-3695
-3683
-3425
-3570
-3523
-2795
-3027
-3451
-3413
-3100
-2813
-2595
-2126
-2042
-2257
-2019
-1597
-1407
-1252
-946
-886
-1264
-1315
-1132
-1287
-1199
-1270
-1758
-1697
-975
-1326
-2472
-2788
-1846
-1419
-1297
-366
107
-594
-324
1038
2022
2137
2756
3632
3428
3329
4047
4596
4471
4691
4768
4081
3255
3314
3421
3181
2909
2504
1665
1199
1437
1331
897
450
76
-558
-564
-308
-697
-1034
-1136
-1132
-1547
-1953
-1813
-1878
-1944
-1935
-2069
-2297
-2260
-1751
-1230
-1431
-1727
-1605
-1195
-927
-869
-559
-1006
-1066
-762
-1028
-880
-1247
-1415
-1491
-2010
-1850
-1604
-1818
-2153
-2300
-2595
-2378
-2007
-1429
-1189
-1160
-951
-645
-57
542
805
1334
1573
1717
2184
2603
2794
2950
3052
3091
3153
3351
3432
3151
3049
2845
2868
2816
2678
2270
1901
1828
1847
1652
1124
863
643
352
225
173
-46
-378
-544
-608
-785
-662
-445
-513
-872
-1038
-1163
-1089
-839
-761
-972
-1386
-1444
-1162
-1111
-1478
-1649
-1706
-1940
-2030
-1807
-1965
-2270
-2292
-2125
-2269
-2446
-2206
-1963
-1908
-2031
-2168
-2051
-1892
-1617
-1398
-1153
-1208
-1017
-706
-439
-153
124
546
835
1147
1595
1876
1898
2293
2501
2699
3000
3046
2883
2748
2905
2876
3078
2893
2638
2364
2134
2081
1902
1749
1391
1268
1096
971
1096
878
742
623
372
296
59
165
93
-68
-435
-802
-915
-784
-1078
-1338
-1574
-1827
-1815
-1932
-1934
-2279
-2453
-2418
-2387
-2286
-2365
-2249
-2241
-2276
-2250
-2132
-2017
-1857
-1896
-1830
-1826
-1983
-1880
-1593
-1435
-1481
-1676
-1537
-1232
-990
-822
-740
-510
-404
-175
192
556
778
916
1135
1451
1676
1897
1924
2026
2128
2037
2211
2277
2276
2269
2243
2158
2195
2199
2187
1924
1816
1714
1831
1696
1819
1778
1418
1287
1187
1227
1126
1050
812
627
498
386
254
108
-91
-225
-224
-429
-435
-365
-533
-596
-678
-845
-911
-908
-837
-1004
-1087
-1134
-1217
-1305
-1236
-1081
-1163
-1305
-1139
-1065
-1044
-1110
-1000
-998
-833
-658
-536
-574
-408
-294
-123
9
-137
104
235
126
86
250
247
183
371
451
486
417
488
614
598
499
655
694
744
955
1092
1060
965
936
966
1053
1090
1171
1045
864
1011
971
822
1005
997
628
642
768
699
720
667
562
368
165
210
90
-21
-2
-191
-373
-507
-556
-621
-749
-805
-899
-903
-1035
-1004
-1081
-1054
-985
-1051
-1073
-1031
-954
-954
-899
-965
-877
-2298
1150
191
-866
169
347
-457
753
-292
-2541
699
649
-1000
-819
795
-195
-1345
-695
315
-283
-589
-734
281
-449
-1159
803
-1652
717
-175
-2113
1080
98
-2373
1112
-1288
-967
680
-1355
-273
415
-2547
-29
584
-1672
219
-839
640
-879
-413
-621
669
-171
-1357
-26
1268
-881
-53
1035
-692
1081
-273
128
420
1088
823
-586
-347
2168
-72
-1695
1552
800
-1828
2007
1353
-734
-1333
837
1907
-757
-2152
2953
2013
-2867
-775
776
2099
-740
-1972
2799
2183
-3922
-858
2787
952
-913
-615
2040
715
-1190
160
2077
1391
-1408
950
2056
-885
-1677
1435
1795
-560
-1880
2268
681
-1243
-1302
586
1951
-1438
-1822
3254
481
-887
-994
995
1633
340
-1167
1129
2712
-193
-379
-983
2282
2393
-1890
-549
2902
-1700
175
203
-182
2333
-1393
-1322
924
-471
-500
1199
-271
1278
-600
-2605
2386
592
-2861
-199
3542
-471
-3158
-410
2028
-326
-3323
1042
3322
-2467
-2248
3105
-389
-1298
364
322
2050
-1908
-790
1532
-492
-726
2511
-903
-782
3019
-1868
-1573
1618
1688
-1294
-129
959
1678
-1225
-1938
1721
2344
-1568
-946
1856
619
-1366
686
2119
-2315
476
1436
464
-1299
-1311
2496
64
-3030
3284
1350
-1703
-1089
-796
2915
-1148
-3125
2658
1761
-4016
-1012
1511
-137
-2196
-312
1805
-1588
-2822
267
1549
-1232
-2066
1470
291
-691
-2344
224
2633
-1496
-1186
938
1292
-979
-1315
-709
2045
-952
-2509
1098
1748
-1566
-3786
2315
1207
-1765
-1611
2009
679
-1388
-1954
2203
831
-1078
1542
-918
-213
-47
600
359
977
286
-403
70
-1080
1103
-178
-830
1070
925
-2631
898
-123
159
1744
-2352
2017
1509
-2825
831
2721
-1933
345
1487
-246
1017
108
-1109
2238
-1324
-852
3284
-941
-2138
1648
712
1566
-2731
671
2535
-631
-477
309
2576
-2354
1087
1768
-1497
699
1261
341
1187
-3235
1578
2559
-2918
521
1346
-14
-825
-333
287
12
1169
685
-1371
715
2249
-202
-367
2275
1935
825
-1077
1602
2337
-1244
1818
2265
-568
673
1738
-1035
1111
-213
1512
830
-1354
